<svg width="197" height="159" viewBox="0 0 197 159" fill="none" xmlns="http://www.w3.org/2000/svg">
<rect x="32.0712" width="132.943" height="159" rx="8.50836" fill="#E5E7EB"/>
<rect y="20.7393" width="144.642" height="25.5251" rx="12.7625" fill="#F9FAFB"/>
<rect x="8.50878" y="26.0569" width="92.5284" height="6.26601" rx="3.133" fill="#D1D5DB"/>
<rect x="8.50836" y="36.6929" width="42.5418" height="4.25418" rx="2.12709" fill="#6B7280"/>
<rect x="131.88" y="36.6924" width="4.25418" height="4.25418" rx="2.12709" fill="#2563EB"/>
<rect x="55.3045" y="36.6924" width="19.6756" height="4.25418" rx="2.12709" fill="#9CA3AF"/>
<rect x="15.5862" y="112.204" width="120.712" height="25.5251" rx="12.7625" fill="#F9FAFB"/>
<rect x="24.0946" y="117.522" width="61.6856" height="6.26601" rx="3.133" fill="#D1D5DB"/>
<rect x="24.0948" y="128.158" width="42.5418" height="4.25418" rx="2.12709" fill="#6B7280"/>
<rect x="123.537" y="128.157" width="4.25418" height="4.25418" rx="2.12709" fill="#2563EB"/>
<rect x="70.8912" y="128.157" width="9.57191" height="4.25418" rx="2.12709" fill="#9CA3AF"/>
<rect x="49.533" y="66.4717" width="146.769" height="25.5251" rx="12.7625" fill="#F9FAFB"/>
<rect x="58.0417" y="71.7893" width="85.0836" height="6.26601" rx="3.133" fill="#D1D5DB"/>
<rect x="58.0414" y="82.425" width="42.5418" height="4.25418" rx="2.12709" fill="#6B7280"/>
<rect x="183.539" y="82.4248" width="4.25418" height="4.25418" rx="2.12709" fill="#2563EB"/>
<rect x="104.837" y="82.4248" width="27.6522" height="4.25418" rx="2.12709" fill="#9CA3AF"/>
</svg>
