<svg width="221" height="112" viewBox="0 0 221 112" fill="none" xmlns="http://www.w3.org/2000/svg">
<rect x="-0.000732422" y="8" width="221" height="16" rx="8" fill="#E5E7EB"/>
<rect x="-0.000732422" y="32" width="50" height="8" rx="4" fill="#F3F4F6"/>
<rect x="58.9993" y="32" width="88" height="8" rx="4" fill="#F3F4F6"/>
<rect x="-0.000732422" y="72" width="221" height="16" rx="8" fill="#E5E7EB"/>
<rect x="-0.000732422" y="96" width="50" height="8" rx="4" fill="#F3F4F6"/>
<rect x="58.9993" y="96" width="88" height="8" rx="4" fill="#F3F4F6"/>
</svg>
